
[
    {
        "age": 
        20,
        "fore_name": 
        "Justus",
        "sur_name": 
        "Jonas"
    },
    {
        "age": 
        20,
        "fore_name": 
        "Peter",
        "sur_name": 
        "Shaw"
    },
    {
        "age": 
        21,
        "fore_name": 
        "Bob",
        "sur_name": 
        "Andrews"
    },
    {
        "age": 
        118,
        "fore_name": 
        "Alfred",
        "sur_name": 
        "Hitchcock"
    },
    {
        "age": 
        58,
        "fore_name": 
        "Albert",
        "sur_name": 
        "Hitfield"
    },
    {
        "age": 
        44,
        "fore_name": 
        "Samuel",
        "sur_name": 
        "Reynolds"
    },
    {
        "age": 
        42,
        "fore_name": 
        "Mathilda",
        "sur_name": 
        "Jonas"
    },
    {
        "age": 
        44,
        "fore_name": 
        "Titus",
        "sur_name": 
        "Jonas"
    },
    {
        "age": 
        42,
        "fore_name": 
        "Cathrine",
        "sur_name": 
        "Jonas"
    },
    {
        "age": 
        43,
        "fore_name": 
        "Julius",
        "sur_name": 
        "Jonas"
    },
    {
        "age": 
        43,
        "fore_name": 
        "Bill",
        "sur_name": 
        "Andrews"
    },
    {
        "age": 
        18,
        "fore_name": 
        "Jelena",
        "sur_name": 
        "Charkova"
    },
    {
        "age": 
        58,
        "fore_name": 
        "Victor",
        "sur_name": 
        "Hugenay"
    },
    {
        "age": 
        23,
        "fore_name": 
        "Skinny",
        "sur_name": 
        "Norris"
    },
    {
        "age": 
        49,
        "fore_name": 
        "Dick",
        "sur_name": 
        "Perry"
    },
    {
        "age": 
        35,
        "fore_name": 
        "Clarissa",
        "sur_name": 
        "Franklin"
    },
    {
        "age": 
        36,
        "fore_name": 
        "Wilbur",
        "sur_name": 
        "Graham"
    }
]